VHDL/testbench.vcd
$date
  Thu Jan  8 18:58:06 2015
$end
$version
  GHDL v0
$end
$timescale
  1 fs
$end
$var reg 1 ! clk $end
$var reg 1 " nrst $end
$var reg 1 # const0 $end
$var reg 1 $ const1 $end
$var reg 1 % dnwe $end
$var reg 1 & dnoe $end
$var reg 32 ' iaddr[31:0] $end
$var reg 32 ( daddr[31:0] $end
$var reg 32 ) idata[31:0] $end
$var reg 32 * ddata[31:0] $end
$comment ictrl is not handled $end
$comment dctrl is not handled $end
$var reg 32 + data[31:0] $end
$var reg 32 , memdata[31:0] $end
$var reg 32 - memadress[31:0] $end
$var reg 32 . pcout[31:0] $end
$var reg 32 / dbus[31:0] $end
$var reg 8 0 iaddr2[7:0] $end
$var reg 8 1 daddr2[7:0] $end
$scope module instmemi $end
$var reg 1 2 ncs $end
$var reg 1 3 nwe $end
$var reg 1 4 noe $end
$var reg 8 5 addr[7:0] $end
$var reg 32 6 data[31:0] $end
$comment fileio is not handled $end
$upscope $end
$scope module datamemi $end
$var reg 1 7 ncs $end
$var reg 1 8 nwe $end
$var reg 1 9 noe $end
$var reg 8 : addr[7:0] $end
$var reg 32 ; data[31:0] $end
$comment fileio is not handled $end
$upscope $end
$scope module pipeproci $end
$var reg 1 < clk $end
$var reg 1 = nres $end
$var reg 32 > ir[31:0] $end
$var reg 32 ? data[31:0] $end
$var reg 32 @ memaddress[31:0] $end
$var reg 32 A memdata[31:0] $end
$var reg 32 B pcout[31:0] $end
$var reg 1 C dnwe $end
$var reg 1 D dnoe $end
$var reg 32 E if_ir[31:0] $end
$var reg 32 F if_pc[31:0] $end
$var reg 32 G pcvalue[31:0] $end
$var reg 32 H pcvaluenew[31:0] $end
$var reg 32 I pcr[31:0] $end
$var reg 32 J id_pc[31:0] $end
$var reg 32 K id_ir[31:0] $end
$var reg 32 L id_opa[31:0] $end
$var reg 32 M id_opb[31:0] $end
$var reg 32 N id_memadress[31:0] $end
$var reg 5 O r1[4:0] $end
$var reg 5 P r2[4:0] $end
$var reg 5 Q r3[4:0] $end
$var reg 32 R ex_ir[31:0] $end
$var reg 32 S ex_pc[31:0] $end
$var reg 32 T ex_memadress[31:0] $end
$var reg 32 U ex_alu[31:0] $end
$var reg 32 V ex_opa[31:0] $end
$var reg 32 W aluout[31:0] $end
$var reg 1 X ex_flag $end
$var reg 1 Y registerflag $end
$var reg 32 Z mem_ir[31:0] $end
$var reg 32 [ mem_alu[31:0] $end
$var reg 32 \ mem_data[31:0] $end
$var reg 32 ] registerwritedata[31:0] $end
$var reg 32 ^ opa[31:0] $end
$var reg 32 _ opb[31:0] $end
$var reg 1 ` writeenable $end
$var reg 32 a r2value[31:0] $end
$var reg 32 b r3value[31:0] $end
$scope module rf1 $end
$var reg 1 c clk $end
$var reg 1 d nres $end
$var reg 5 e r2[4:0] $end
$var reg 5 f r3[4:0] $end
$var reg 5 g r1[4:0] $end
$var reg 32 h data[31:0] $end
$var reg 32 i pcr[31:0] $end
$var reg 1 j writeenable $end
$var reg 32 k r2value[31:0] $end
$var reg 32 l r3value[31:0] $end
$var reg 32 m pcvalue[31:0] $end
$comment registers is not handled $end
$upscope $end
$scope module alu1 $end
$var reg 32 n opa[31:0] $end
$var reg 32 o opb[31:0] $end
$var reg 6 p opcode[5:0] $end
$var reg 32 q aluout[31:0] $end
$var reg 1 r aluflagout $end
$var reg 32 s opaunsigned[31:0] $end
$var reg 32 t opbunsigned[31:0] $end
$upscope $end
$upscope $end
$enddefinitions $end
#0
0!
0"
0#
1$
U%
U&
b00000000000000000000000000000000 '
bUUUUUUUUUUUUUUUUUUUUUUUUUUUUUUUU (
b00000000000000000000000000001111 )
bUUUUUUUUUUUUUUUUUUUUUUUUUUUUUUUU *
bUUUUUUUUUUUUUUUUUUUUUUUUUUUUUUUU +
bUUUUUUUUUUUUUUUUUUUUUUUUUUUUUUUU ,
bUUUUUUUUUUUUUUUUUUUUUUUUUUUUUUUU -
bUUUUUUUUUUUUUUUUUUUUUUUUUUUUUUUU .
bZZZZZZZZZZZZZZZZZZZZZZZZZZZZZZZZ /
b00000000 0
bUUUUUUUU 1
02
13
04
b00000000 5
b00000000000000000000000000001111 6
07
U8
U9
bUUUUUUUU :
bZZZZZZZZZZZZZZZZZZZZZZZZZZZZZZZZ ;
0<
0=
b00000000000000000000000000001111 >
bZZZZZZZZZZZZZZZZZZZZZZZZZZZZZZZZ ?
bUUUUUUUUUUUUUUUUUUUUUUUUUUUUUUUU @
bUUUUUUUUUUUUUUUUUUUUUUUUUUUUUUUU A
b00000000000000000000000000000000 B
UC
UD
b00000000000000000000000000010010 E
bUUUUUUUUUUUUUUUUUUUUUUUUUUUUUUUU F
b00000000000000000000000000000000 G
b00000000000000000000000000000001 H
b00000000000000000000000000000001 I
bUUUUUUUUUUUUUUUUUUUUUUUUUUUUUUUU J
b00000000000000000000000000010010 K
bUUUUUUUUUUUUUUUUUUUUUUUUUUUUUUUU L
bUUUUUUUUUUUUUUUUUUUUUUUUUUUUUUUU M
bUUUUUUUUUUUUUUUUUUUUUUUUUUUUUUUU N
bUUUUU O
bUUUUU P
bUUUUU Q
b00000000000000000000000000010010 R
b00000000000000000000000000000000 S
bUUUUUUUUUUUUUUUUUUUUUUUUUUUUUUUU T
bUUUUUUUUUUUUUUUUUUUUUUUUUUUUUUUU U
bUUUUUUUUUUUUUUUUUUUUUUUUUUUUUUUU V
bUUUUUUUUUUUUUUUUUUUUUUUUUUUUUUUU W
0X
-Y
b00000000000000000000000000010010 Z
bUUUUUUUUUUUUUUUUUUUUUUUUUUUUUUUU [
bUUUUUUUUUUUUUUUUUUUUUUUUUUUUUUUU \
bUUUUUUUUUUUUUUUUUUUUUUUUUUUUUUUU ]
bUUUUUUUUUUUUUUUUUUUUUUUUUUUUUUUU ^
bUUUUUUUUUUUUUUUUUUUUUUUUUUUUUUUU _
0`
bUUUUUUUUUUUUUUUUUUUUUUUUUUUUUUUU a
bUUUUUUUUUUUUUUUUUUUUUUUUUUUUUUUU b
0c
0d
bUUUUU e
bUUUUU f
bUUUUU g
bUUUUUUUUUUUUUUUUUUUUUUUUUUUUUUUU h
b00000000000000000000000000000001 i
0j
bUUUUUUUUUUUUUUUUUUUUUUUUUUUUUUUU k
bUUUUUUUUUUUUUUUUUUUUUUUUUUUUUUUU l
b00000000000000000000000000000000 m
bUUUUUUUUUUUUUUUUUUUUUUUUUUUUUUUU n
bUUUUUUUUUUUUUUUUUUUUUUUUUUUUUUUU o
b010010 p
bUUUUUUUUUUUUUUUUUUUUUUUUUUUUUUUU q
-r
bUUUUUUUUUUUUUUUUUUUUUUUUUUUUUUUU s
bUUUUUUUUUUUUUUUUUUUUUUUUUUUUUUUU t
#5000000
1"
1=
1d
#10000000
#20000000
1!
1%
0&
b00000000000000000000000000000001 '
b00000000000000000000000000010010 )
bUUUUUUUUUUUUUUUUUUUUUUUUUUUUUUUU /
b00000001 0
b00000001 5
b00000000000000000000000000010010 6
18
09
bUUUUUUUUUUUUUUUUUUUUUUUUUUUUUUUU ;
1<
b00000000000000000000000000010010 >
bUUUUUUUUUUUUUUUUUUUUUUUUUUUUUUUU ?
b00000000000000000000000000000001 B
1C
0D
b00000000000000000000000000001111 E
b00000000000000000000000000000001 F
b00000000000000000000000000000001 G
b00000000000000000000000000000010 H
b00000000000000000000000000000010 I
b00000 P
b00000 Q
bUUUUUUUUUUUUUUUUUUUUUUUUUUUUUUUU S
-X
bZZZZZZZZZZZZZZZZZZZZZZZZZZZZZZZZ \
1c
b00000 e
b00000 f
b00000000000000000000000000000010 i
b00000000000000000000000000000001 m
#30000000
0!
0<
0c
#40000000
1!
b00000000000000000000000000000010 '
b00000010 0
b00000010 5
1<
b00000000000000000000000000000010 B
b00000000000000000000000000010010 E
b00000000000000000000000000000010 F
b00000000000000000000000000000010 G
b00000000000000000000000000000011 H
b00000000000000000000000000000011 I
b00000000000000000000000000000001 J
b00000000000000000000000000001111 K
bUUUUUUUUUUUUUUUUUUUUUUUUUUUUUUUU \
1c
b00000000000000000000000000000011 i
b00000000000000000000000000000010 m
b001111 p
#50000000
0!
0<
0c
#60000000
1!
b00000000000000000000000000000011 '
b00000011 0
b00000011 5
1<
b00000000000000000000000000000011 B
b00000000000000000000000000000011 F
b00000000000000000000000000000011 G
b00000000000000000000000000000100 H
b00000000000000000000000000000100 I
b00000000000000000000000000000010 J
b00000000000000000000000000010010 K
b00000000000000000000000000001111 R
b00000000000000000000000000000001 S
1c
b00000000000000000000000000000100 i
b00000000000000000000000000000011 m
b010010 p
#70000000
0!
0<
0c
#80000000
1!
b00000000000000000000000000000100 '
b00000000000000000000100001001111 )
b00000100 0
b00000100 5
b00000000000000000000100001001111 6
1<
b00000000000000000000100001001111 >
b00000000000000000000000000000100 B
b00000000000000000000000000000100 F
b00000000000000000000000000000100 G
b00000000000000000000000000000101 H
b00000000000000000000000000000101 I
b00000000000000000000000000000011 J
b00000000000000000000000000010010 R
b00000000000000000000000000000010 S
b00000000000000000000000000001111 Z
1`
1c
b00000000000000000000000000000101 i
1j
b00000000000000000000000000000100 m
#90000000
0!
0<
0c
#100000000
1!
b00000000000000000000000000000101 '
b00000000000000000000000000010010 )
b00000101 0
b00000101 5
b00000000000000000000000000010010 6
1<
b00000000000000000000000000010010 >
b00000000000000000000000000000101 B
b00000000000000000000100001001111 E
b00000000000000000000000000000101 F
b00000000000000000000000000000101 G
b00000000000000000000000000000110 H
b00000000000000000000000000000110 I
b00000000000000000000000000000100 J
b00001 P
b00000000000000000000000000000011 S
b00000000000000000000000000010010 Z
0`
1c
b00001 e
b00000000000000000000000000000110 i
0j
b00000000000000000000000000000101 m
#110000000
0!
0<
0c
#120000000
1!
b00000000000000000000000000000110 '
b00000110 0
b00000110 5
1<
b00000000000000000000000000000110 B
b00000000000000000000000000010010 E
b00000000000000000000000000000110 F
b00000000000000000000000000000110 G
b00000000000000000000000000000111 H
b00000000000000000000000000000111 I
b00000000000000000000000000000101 J
b00000000000000000000100001001111 K
b00000 P
b00000000000000000000000000000100 S
1c
b00000 e
b00000000000000000000000000000111 i
b00000000000000000000000000000110 m
b001111 p
#130000000
0!
0<
0c
#140000000
1!
b00000000000000000000000000000111 '
b00000111 0
b00000111 5
1<
b00000000000000000000000000000111 B
b00000000000000000000000000000111 F
b00000000000000000000000000000111 G
b00000000000000000000000000001000 H
b00000000000000000000000000001000 I
b00000000000000000000000000000110 J
b00000000000000000000000000010010 K
b00000000000000000000100001001111 R
b00000000000000000000000000000101 S
1c
b00000000000000000000000000001000 i
b00000000000000000000000000000111 m
b010010 p
#150000000
0!
0<
0c
#160000000
1!
b00000000000000000000000000001000 '
b00000000000000001001011110001111 )
b00001000 0
b00001000 5
b00000000000000001001011110001111 6
1<
b00000000000000001001011110001111 >
b00000000000000000000000000001000 B
b00000000000000000000000000001000 F
b00000000000000000000000000001000 G
b00000000000000000000000000001001 H
b00000000000000000000000000001001 I
b00000000000000000000000000000111 J
b00000000000000000000000000010010 R
b00000000000000000000000000000110 S
b00000000000000000000100001001111 Z
1`
1c
b00000000000000000000000000001001 i
1j
b00000000000000000000000000001000 m
#170000000
0!
0<
0c
#180000000
1!
b00000000000000000000000000001001 '
b00000000000000000000000000010010 )
b00001001 0
b00001001 5
b00000000000000000000000000010010 6
1<
b00000000000000000000000000010010 >
b00000000000000000000000000001001 B
b00000000000000001001011110001111 E
b00000000000000000000000000001001 F
b00000000000000000000000000001001 G
b00000000000000000000000000001010 H
b00000000000000000000000000001010 I
b00000000000000000000000000001000 J
b10010 P
b00000000000000000000000000000111 S
b00000000000000000000000000010010 Z
0`
1c
b10010 e
b00000000000000000000000000001010 i
0j
b00000000000000000000000000001001 m
#190000000
0!
0<
0c
#200000000
1!
b00000000000000000000000000001010 '
b00001010 0
b00001010 5
1<
b00000000000000000000000000001010 B
b00000000000000000000000000010010 E
b00000000000000000000000000001010 F
b00000000000000000000000000001010 G
b00000000000000000000000000001011 H
b00000000000000000000000000001011 I
b00000000000000000000000000001001 J
b00000000000000001001011110001111 K
b00000 P
b00000000000000000000000000001000 S
1c
b00000 e
b00000000000000000000000000001011 i
b00000000000000000000000000001010 m
b001111 p
#210000000
0!
0<
0c
#220000000
1!
b00000000000000000000000000001011 '
b00001011 0
b00001011 5
1<
b00000000000000000000000000001011 B
b00000000000000000000000000001011 F
b00000000000000000000000000001011 G
b00000000000000000000000000001100 H
b00000000000000000000000000001100 I
b00000000000000000000000000001010 J
b00000000000000000000000000010010 K
b00000000000000001001011110001111 R
b00000000000000000000000000001001 S
1c
b00000000000000000000000000001100 i
b00000000000000000000000000001011 m
b010010 p
#230000000
0!
0<
0c
#240000000
1!
b00000000000000000000000000001100 '
b00000000000000000100011101001111 )
b00001100 0
b00001100 5
b00000000000000000100011101001111 6
1<
b00000000000000000100011101001111 >
b00000000000000000000000000001100 B
b00000000000000000000000000001100 F
b00000000000000000000000000001100 G
b00000000000000000000000000001101 H
b00000000000000000000000000001101 I
b00000000000000000000000000001011 J
b00000000000000000000000000010010 R
b00000000000000000000000000001010 S
b00000000000000001001011110001111 Z
1`
1c
b00000000000000000000000000001101 i
1j
b00000000000000000000000000001100 m
#250000000
0!
0<
0c
#260000000
1!
b00000000000000000000000000001101 '
b00000000000000000000000000010010 )
b00001101 0
b00001101 5
b00000000000000000000000000010010 6
1<
b00000000000000000000000000010010 >
b00000000000000000000000000001101 B
b00000000000000000100011101001111 E
b00000000000000000000000000001101 F
b00000000000000000000000000001101 G
b00000000000000000000000000001110 H
b00000000000000000000000000001110 I
b00000000000000000000000000001100 J
b01000 P
b00000000000000000000000000001011 S
b00000000000000000000000000010010 Z
0`
1c
b01000 e
b00000000000000000000000000001110 i
0j
b00000000000000000000000000001101 m
#270000000
0!
0<
0c
#280000000
1!
b00000000000000000000000000001110 '
b00001110 0
b00001110 5
1<
b00000000000000000000000000001110 B
b00000000000000000000000000010010 E
b00000000000000000000000000001110 F
b00000000000000000000000000001110 G
b00000000000000000000000000001111 H
b00000000000000000000000000001111 I
b00000000000000000000000000001101 J
b00000000000000000100011101001111 K
b00000 P
b00000000000000000000000000001100 S
1c
b00000 e
b00000000000000000000000000001111 i
b00000000000000000000000000001110 m
b001111 p
#290000000
0!
0<
0c
#300000000
1!
b00000000000000000000000000001111 '
b00001111 0
b00001111 5
1<
b00000000000000000000000000001111 B
b00000000000000000000000000001111 F
b00000000000000000000000000001111 G
b00000000000000000000000000010000 H
b00000000000000000000000000010000 I
b00000000000000000000000000001110 J
b00000000000000000000000000010010 K
b00000000000000000100011101001111 R
b00000000000000000000000000001101 S
1c
b00000000000000000000000000010000 i
b00000000000000000000000000001111 m
b010010 p
#310000000
0!
0<
0c
#320000000
1!
b00000000000000000000000000010000 '
b00000000000000000000000011001111 )
b00010000 0
b00010000 5
b00000000000000000000000011001111 6
1<
b00000000000000000000000011001111 >
b00000000000000000000000000010000 B
b00000000000000000000000000010000 F
b00000000000000000000000000010000 G
b00000000000000000000000000010001 H
b00000000000000000000000000010001 I
b00000000000000000000000000001111 J
b00000000000000000000000000010010 R
b00000000000000000000000000001110 S
b00000000000000000100011101001111 Z
1`
1c
b00000000000000000000000000010001 i
1j
b00000000000000000000000000010000 m
#330000000
0!
0<
0c
#340000000
1!
b00000000000000000000000000010001 '
b00000000000000000000000000010010 )
b00010001 0
b00010001 5
b00000000000000000000000000010010 6
1<
b00000000000000000000000000010010 >
b00000000000000000000000000010001 B
b00000000000000000000000011001111 E
b00000000000000000000000000010001 F
b00000000000000000000000000010001 G
b00000000000000000000000000010010 H
b00000000000000000000000000010010 I
b00000000000000000000000000010000 J
b00000000000000000000000000001111 S
b00000000000000000000000000010010 Z
0`
1c
b00000000000000000000000000010010 i
0j
b00000000000000000000000000010001 m
#350000000
0!
0<
0c
#360000000
1!
b00000000000000000000000000010010 '
b00010010 0
b00010010 5
1<
b00000000000000000000000000010010 B
b00000000000000000000000000010010 E
b00000000000000000000000000010010 F
b00000000000000000000000000010010 G
b00000000000000000000000000010011 H
b00000000000000000000000000010011 I
b00000000000000000000000000010001 J
b00000000000000000000000011001111 K
b00000000000000000000000000010000 S
1c
b00000000000000000000000000010011 i
b00000000000000000000000000010010 m
b001111 p
#370000000
0!
0<
0c
#380000000
1!
b00000000000000000000000000010011 '
b00010011 0
b00010011 5
1<
b00000000000000000000000000010011 B
b00000000000000000000000000010011 F
b00000000000000000000000000010011 G
b00000000000000000000000000010100 H
b00000000000000000000000000010100 I
b00000000000000000000000000010010 J
b00000000000000000000000000010010 K
b00000000000000000000000011001111 R
b00000000000000000000000000010001 S
1c
b00000000000000000000000000010100 i
b00000000000000000000000000010011 m
b010010 p
#390000000
0!
0<
0c
#400000000
1!
b00000000000000000000000000010100 '
b00000000000000000001100000010001 )
b00010100 0
b00010100 5
b00000000000000000001100000010001 6
1<
b00000000000000000001100000010001 >
b00000000000000000000000000010100 B
b00000000000000000000000000010100 F
b00000000000000000000000000010100 G
b00000000000000000000000000010101 H
b00000000000000000000000000010101 I
b00000000000000000000000000010011 J
b00000000000000000000000000010010 R
b00000000000000000000000000010010 S
b00000000000000000000000011001111 Z
1`
1c
b00000000000000000000000000010101 i
1j
b00000000000000000000000000010100 m
#410000000
0!
0<
0c
#420000000
1!
b00000000000000000000000000010101 '
b00000000000000000000000000010010 )
b00010101 0
b00010101 5
b00000000000000000000000000010010 6
1<
b00000000000000000000000000010010 >
b00000000000000000000000000010101 B
b00000000000000000001100000010001 E
b00000000000000000000000000010101 F
b00000000000000000000000000010101 G
b00000000000000000000000000010110 H
b00000000000000000000000000010110 I
b00000000000000000000000000010100 J
b00011 P
b00000000000000000000000000010011 S
b00000000000000000000000000010010 Z
0`
1c
b00011 e
b00000000000000000000000000010110 i
0j
b00000000000000000000000000010101 m
#430000000
0!
0<
0c
#440000000
1!
b00000000000000000000000000010110 '
b00010110 0
b00010110 5
1<
b00000000000000000000000000010110 B
b00000000000000000000000000010010 E
b00000000000000000000000000010110 F
b00000000000000000000000000010110 G
b00000000000000000000000000010111 H
b00000000000000000000000000010111 I
b00000000000000000000000000010101 J
b00000000000000000001100000010001 K
b00000 P
b00000000000000000000000000010100 S
1c
b00000 e
b00000000000000000000000000010111 i
b00000000000000000000000000010110 m
b010001 p
#450000000
0!
0<
0c
#460000000
1!
0%
1&
b00000000000000000000000000010111 '
b00010111 0
b00010111 5
08
19
1<
b00000000000000000000000000010111 B
0C
1D
b00000000000000000000000000010111 F
b00000000000000000000000000010111 G
b00000000000000000000000000011000 H
b00000000000000000000000000011000 I
b00000000000000000000000000010110 J
b00000000000000000000000000010010 K
b00000000000000000001100000010001 R
b00000000000000000000000000010101 S
1c
b00000000000000000000000000011000 i
b00000000000000000000000000010111 m
b010010 p
#470000000
0!
0<
0c
#480000000
1!
1%
0&
b00000000000000000000000000011000 '
b00000000000000010001100001010001 )
b00011000 0
b00011000 5
b00000000000000010001100001010001 6
18
09
1<
b00000000000000010001100001010001 >
b00000000000000000000000000011000 B
1C
0D
b00000000000000000000000000011000 F
b00000000000000000000000000011000 G
b00000000000000000000000000011001 H
b00000000000000000000000000011001 I
b00000000000000000000000000010111 J
b00000000000000000000000000010010 R
b00000000000000000000000000010110 S
b00000000000000000001100000010001 Z
1c
b00000000000000000000000000011001 i
b00000000000000000000000000011000 m
#490000000
0!
0<
0c
#500000000
1!
b00000000000000000000000000011001 '
b00000000000000000000000000010010 )
b00011001 0
b00011001 5
b00000000000000000000000000010010 6
1<
b00000000000000000000000000010010 >
b00000000000000000000000000011001 B
b00000000000000010001100001010001 E
b00000000000000000000000000011001 F
b00000000000000000000000000011001 G
b00000000000000000000000000011010 H
b00000000000000000000000000011010 I
b00000000000000000000000000011000 J
b00011 P
b00001 Q
b00000000000000000000000000010111 S
b00000000000000000000000000010010 Z
1c
b00011 e
b00001 f
b00000000000000000000000000011010 i
b00000000000000000000000000011001 m
#510000000
0!
0<
0c
#520000000
1!
b00000000000000000000000000011010 '
b00011010 0
b00011010 5
1<
b00000000000000000000000000011010 B
b00000000000000000000000000010010 E
b00000000000000000000000000011010 F
b00000000000000000000000000011010 G
b00000000000000000000000000011011 H
b00000000000000000000000000011011 I
b00000000000000000000000000011001 J
b00000000000000010001100001010001 K
b00000 P
b00000 Q
b00000000000000000000000000011000 S
1c
b00000 e
b00000 f
b00000000000000000000000000011011 i
b00000000000000000000000000011010 m
b010001 p
#530000000
0!
0<
0c
#540000000
1!
0%
1&
b00000000000000000000000000011011 '
b00011011 0
b00011011 5
08
19
1<
b00000000000000000000000000011011 B
0C
1D
b00000000000000000000000000011011 F
b00000000000000000000000000011011 G
b00000000000000000000000000011100 H
b00000000000000000000000000011100 I
b00000000000000000000000000011010 J
b00000000000000000000000000010010 K
b00000000000000010001100001010001 R
b00000000000000000000000000011001 S
1c
b00000000000000000000000000011100 i
b00000000000000000000000000011011 m
b010010 p
#550000000
0!
0<
0c
#560000000
1!
1%
0&
b00000000000000000000000000011100 '
b00000000000000100001100011100001 )
b00011100 0
b00011100 5
b00000000000000100001100011100001 6
18
09
1<
b00000000000000100001100011100001 >
b00000000000000000000000000011100 B
1C
0D
b00000000000000000000000000011100 F
b00000000000000000000000000011100 G
b00000000000000000000000000011101 H
b00000000000000000000000000011101 I
b00000000000000000000000000011011 J
b00000000000000000000000000010010 R
b00000000000000000000000000011010 S
b00000000000000010001100001010001 Z
1c
b00000000000000000000000000011101 i
b00000000000000000000000000011100 m
#570000000
0!
0<
0c
#580000000
1!
b00000000000000000000000000011101 '
b00000000000000000000000000010010 )
b00011101 0
b00011101 5
b00000000000000000000000000010010 6
1<
b00000000000000000000000000010010 >
b00000000000000000000000000011101 B
b00000000000000100001100011100001 E
b00000000000000000000000000011101 F
b00000000000000000000000000011101 G
b00000000000000000000000000011110 H
b00000000000000000000000000011110 I
b00000000000000000000000000011100 J
b00011 P
b00010 Q
b00000000000000000000000000011011 S
b00000000000000000000000000010010 Z
1c
b00011 e
b00010 f
b00000000000000000000000000011110 i
b00000000000000000000000000011101 m
#590000000
0!
0<
0c
#600000000
1!
b00000000000000000000000000011110 '
b00011110 0
b00011110 5
1<
b00000000000000000000000000011110 B
b00000000000000000000000000010010 E
b00000000000000000000000000011110 F
b00000000000000000000000000011110 G
b00000000000000000000000000011111 H
b00000000000000000000000000011111 I
b00000000000000000000000000011101 J
b00000000000000100001100011100001 K
b00000 P
b00000000000000000000000000011100 S
bXXXXXXXXXXXXXXXXXXXXXXXXXXXXXXXX W
1c
b00000 e
b00000000000000000000000000011111 i
b00000000000000000000000000011110 m
b100001 p
bXXXXXXXXXXXXXXXXXXXXXXXXXXXXXXXX q
#610000000
0!
0<
0c
#620000000
1!
b00000000000000000000000000011111 '
b00011111 0
b00011111 5
1<
b00000000000000000000000000011111 B
b00000000000000000000000000011111 F
b00000000000000000000000000011111 G
b00000000000000000000000000100000 H
b00000000000000000000000000100000 I
b00000000000000000000000000011110 J
b00000000000000000000000000010010 K
b00000 Q
b00000000000000100001100011100001 R
b00000000000000000000000000011101 S
bXXXXXXXXXXXXXXXXXXXXXXXXXXXXXXXX U
bUUUUUUUUUUUUUUUUUUUUUUUUUUUUUUUU W
1c
b00000 f
b00000000000000000000000000100000 i
b00000000000000000000000000011111 m
b010010 p
bUUUUUUUUUUUUUUUUUUUUUUUUUUUUUUUU q
#630000000
0!
0<
0c
#640000000
1!
b00000000000000000000000000100000 '
b00000000000000000000100010100000 )
b00100000 0
b00100000 5
b00000000000000000000100010100000 6
1<
b00000000000000000000100010100000 >
b00000000000000000000000000100000 B
b00000000000000000000000000100000 F
b00000000000000000000000000100000 G
b00000000000000000000000000100001 H
b00000000000000000000000000100001 I
b00000000000000000000000000011111 J
b00000000000000000000000000010010 R
b00000000000000000000000000011110 S
bUUUUUUUUUUUUUUUUUUUUUUUUUUUUUUUU U
b00000000000000100001100011100001 Z
bXXXXXXXXXXXXXXXXXXXXXXXXXXXXXXXX [
bXXXXXXXXXXXXXXXXXXXXXXXXXXXXXXXX ]
1`
1c
bXXXXXXXXXXXXXXXXXXXXXXXXXXXXXXXX h
b00000000000000000000000000100001 i
1j
b00000000000000000000000000100000 m
#650000000
0!
0<
0c
#660000000
1!
b00000000000000000000000000100001 '
b00000000000000000000000000010010 )
b00100001 0
b00100001 5
b00000000000000000000000000010010 6
1<
b00000000000000000000000000010010 >
b00000000000000000000000000100001 B
b00000000000000000000100010100000 E
b00000000000000000000000000100001 F
b00000000000000000000000000100001 G
b00000000000000000000000000100010 H
b00000000000000000000000000100010 I
b00000000000000000000000000100000 J
b00001 P
b00000000000000000000000000011111 S
b00000000000000000000000000010010 Z
bUUUUUUUUUUUUUUUUUUUUUUUUUUUUUUUU [
bUUUUUUUUUUUUUUUUUUUUUUUUUUUUUUUU ]
0`
bXXXXXXXXXXXXXXXXXXXXXXXXXXXXXXXX b
1c
b00001 e
bUUUUUUUUUUUUUUUUUUUUUUUUUUUUUUUU h
b00000000000000000000000000100010 i
0j
bXXXXXXXXXXXXXXXXXXXXXXXXXXXXXXXX l
b00000000000000000000000000100001 m
#670000000
0!
0<
0c
#680000000
1!
b00000000000000000000000000100010 '
b00100010 0
b00100010 5
1<
b00000000000000000000000000100010 B
b00000000000000000000000000010010 E
b00000000000000000000000000100010 F
b00000000000000000000000000100010 G
b00000000000000000000000000100011 H
b00000000000000000000000000100011 I
b00000000000000000000000000100001 J
b00000000000000000000100010100000 K
bXXXXXXXXXXXXXXXXXXXXXXXXXXXXXXXX M
b00000 P
b00000000000000000000000000100000 S
bXXXXXXXXXXXXXXXXXXXXXXXXXXXXXXXX W
bXXXXXXXXXXXXXXXXXXXXXXXXXXXXXXXX a
1c
b00000 e
b00000000000000000000000000100011 i
bXXXXXXXXXXXXXXXXXXXXXXXXXXXXXXXX k
b00000000000000000000000000100010 m
bXXXXXXXXXXXXXXXXXXXXXXXXXXXXXXXX o
b100000 p
bXXXXXXXXXXXXXXXXXXXXXXXXXXXXXXXX q
bXXXXXXXXXXXXXXXXXXXXXXXXXXXXXXXX t
#690000000
0!
0<
0c
#700000000
1!
b00000000000000000000000000100011 '
b00100011 0
b00100011 5
1<
b00000000000000000000000000100011 B
b00000000000000000000000000100011 F
b00000000000000000000000000100011 G
b00000000000000000000000000100100 H
b00000000000000000000000000100100 I
b00000000000000000000000000100010 J
b00000000000000000000000000010010 K
bXXXXXXXXXXXXXXXXXXXXXXXXXXXXXXXX L
b00000000000000000000100010100000 R
b00000000000000000000000000100001 S
bXXXXXXXXXXXXXXXXXXXXXXXXXXXXXXXX U
1c
b00000000000000000000000000100100 i
b00000000000000000000000000100011 m
bXXXXXXXXXXXXXXXXXXXXXXXXXXXXXXXX n
b010010 p
bXXXXXXXXXXXXXXXXXXXXXXXXXXXXXXXX s
#710000000
0!
0<
0c
#720000000
1!
b00000000000000000000000000100100 '
b00000000000000000001000001001010 )
b00100100 0
b00100100 5
b00000000000000000001000001001010 6
1<
b00000000000000000001000001001010 >
b00000000000000000000000000100100 B
b00000000000000000000000000100100 F
b00000000000000000000000000100100 G
b00000000000000000000000000100101 H
b00000000000000000000000000100101 I
b00000000000000000000000000100011 J
b00000000000000000000000000010010 R
b00000000000000000000000000100010 S
bXXXXXXXXXXXXXXXXXXXXXXXXXXXXXXXX V
b00000000000000000000100010100000 Z
bXXXXXXXXXXXXXXXXXXXXXXXXXXXXXXXX [
bXXXXXXXXXXXXXXXXXXXXXXXXXXXXXXXX ]
1`
1c
bXXXXXXXXXXXXXXXXXXXXXXXXXXXXXXXX h
b00000000000000000000000000100101 i
1j
b00000000000000000000000000100100 m
#730000000
0!
0<
0c
#740000000
1!
b00000000000000000000000000100101 '
b00000000000000000000000000010010 )
b00100101 0
b00100101 5
b00000000000000000000000000010010 6
1<
b00000000000000000000000000010010 >
b00000000000000000000000000100101 B
b00000000000000000001000001001010 E
b00000000000000000000000000100101 F
b00000000000000000000000000100101 G
b00000000000000000000000000100110 H
b00000000000000000000000000100110 I
b00000000000000000000000000100100 J
b00010 P
b00000000000000000000000000100011 S
b00000000000000000000000000010010 Z
0`
bUUUUUUUUUUUUUUUUUUUUUUUUUUUUUUUU a
1c
b00010 e
b00000000000000000000000000100110 i
0j
bUUUUUUUUUUUUUUUUUUUUUUUUUUUUUUUU k
b00000000000000000000000000100101 m
#750000000
0!
0<
0c
#760000000
1!
b00000000000000000000000000100110 '
b00100110 0
b00100110 5
1<
b00000000000000000000000000100110 B
b00000000000000000000000000010010 E
b00000000000000000000000000100110 F
b00000000000000000000000000100110 G
b00000000000000000000000000100111 H
b00000000000000000000000000100111 I
b00000000000000000000000000100101 J
b00000000000000000001000001001010 K
bUUUUUUUUUUUUUUUUUUUUUUUUUUUUUUUU L
b00000 P
b00000000000000000000000000100100 S
bUUUUUUUUUUUUUUUUUUUUUUUUUUUUUUUU W
0Y
bXXXXXXXXXXXXXXXXXXXXXXXXXXXXXXXX a
1c
b00000 e
b00000000000000000000000000100111 i
bXXXXXXXXXXXXXXXXXXXXXXXXXXXXXXXX k
b00000000000000000000000000100110 m
bUUUUUUUUUUUUUUUUUUUUUUUUUUUUUUUU n
b001010 p
bUUUUUUUUUUUUUUUUUUUUUUUUUUUUUUUU q
0r
bUUUUUUUUUUUUUUUUUUUUUUUUUUUUUUUU s
#770000000
0!
0<
0c
